[
    {
        "nid": "Battle_Axe",
        "name": "Battle Axe",
        "desc": "",
        "icon_nid": "Axe",
        "icon_index": [
            0,
            15
        ],
        "components": [
            [
                "weapon",
                null
            ],
            [
                "target_enemy",
                null
            ],
            [
                "level_exp",
                null
            ],
            [
                "damage",
                13
            ],
            [
                "hit",
                60
            ],
            [
                "weapon_type",
                "Axe"
            ],
            [
                "weapon_rank",
                "B"
            ],
            [
                "weight",
                15
            ],
            [
                "uses",
                20
            ],
            [
                "uses_options",
                [
                    [
                        "LoseUsesOnMiss (T/F)",
                        "F",
                        "Lose uses even on miss"
                    ]
                ]
            ],
            [
                "crit",
                5
            ],
            [
                "value",
                1000
            ],
            [
                "min_range",
                1
            ],
            [
                "max_range",
                1
            ]
        ]
    }
]