[
    {
        "nid": "Brave_Bow",
        "name": "Brave Bow",
        "desc": "Allows two consecutive hits.",
        "icon_nid": "Bow",
        "icon_index": [
            0,
            5
        ],
        "components": [
            [
                "weapon",
                null
            ],
            [
                "target_enemy",
                null
            ],
            [
                "level_exp",
                null
            ],
            [
                "damage",
                10
            ],
            [
                "hit",
                70
            ],
            [
                "weapon_type",
                "Bow"
            ],
            [
                "weapon_rank",
                "B"
            ],
            [
                "uses",
                30
            ],
            [
                "uses_options",
                [
                    [
                        "LoseUsesOnMiss (T/F)",
                        "F",
                        "Lose uses even on miss"
                    ]
                ]
            ],
            [
                "brave",
                null
            ],
            [
                "weight",
                12
            ],
            [
                "crit",
                0
            ],
            [
                "value",
                7500
            ],
            [
                "min_range",
                2
            ],
            [
                "max_range",
                2
            ],
            [
                "effective",
                20
            ],
            [
                "effective_tag",
                [
                    "Flying"
                ]
            ]
        ]
    }
]