[
    {
        "nid": "Garm",
        "name": "Garm",
        "desc": "Speed +5. Effective against monsters",
        "icon_nid": "Axe",
        "icon_index": [
            0,
            16
        ],
        "components": [
            [
                "weapon",
                null
            ],
            [
                "target_enemy",
                null
            ],
            [
                "level_exp",
                null
            ],
            [
                "damage",
                20
            ],
            [
                "hit",
                75
            ],
            [
                "weapon_type",
                "Axe"
            ],
            [
                "weapon_rank",
                "S"
            ],
            [
                "uses",
                30
            ],
            [
                "uses_options",
                [
                    [
                        "LoseUsesOnMiss (T/F)",
                        "F",
                        "Lose uses even on miss"
                    ]
                ]
            ],
            [
                "weight",
                13
            ],
            [
                "status_on_equip",
                "Speed_Plus5"
            ],
            [
                "crit",
                0
            ],
            [
                "min_range",
                1
            ],
            [
                "max_range",
                1
            ],
            [
                "effective",
                40
            ],
            [
                "effective_tag",
                [
                    "Monster"
                ]
            ]
        ]
    }
]