[
    {
        "nid": "Hand_Axe",
        "name": "Hand Axe",
        "desc": "",
        "icon_nid": "Axe",
        "icon_index": [
            0,
            9
        ],
        "components": [
            [
                "weapon",
                null
            ],
            [
                "target_enemy",
                null
            ],
            [
                "min_range",
                1
            ],
            [
                "max_range",
                2
            ],
            [
                "damage",
                7
            ],
            [
                "hit",
                60
            ],
            [
                "crit",
                0
            ],
            [
                "weight",
                12
            ],
            [
                "uses",
                20
            ],
            [
                "uses_options",
                [
                    [
                        "LoseUsesOnMiss (T/F)",
                        "F",
                        "Lose uses even on miss"
                    ]
                ]
            ],
            [
                "level_exp",
                null
            ],
            [
                "weapon_type",
                "Axe"
            ],
            [
                "weapon_rank",
                "E"
            ],
            [
                "value",
                300
            ]
        ]
    }
]