[
    {
        "nid": "Ivaldi",
        "name": "Ivaldi",
        "desc": "Defense +5. Effective against monsters",
        "icon_nid": "Light",
        "icon_index": [
            0,
            5
        ],
        "components": [
            [
                "weapon",
                null
            ],
            [
                "target_enemy",
                null
            ],
            [
                "level_exp",
                null
            ],
            [
                "damage",
                17
            ],
            [
                "hit",
                90
            ],
            [
                "weapon_type",
                "Light"
            ],
            [
                "weapon_rank",
                "S"
            ],
            [
                "magic",
                null
            ],
            [
                "uses",
                30
            ],
            [
                "uses_options",
                [
                    [
                        "LoseUsesOnMiss (T/F)",
                        "F",
                        "Lose uses even on miss"
                    ]
                ]
            ],
            [
                "weight",
                8
            ],
            [
                "crit",
                5
            ],
            [
                "status_on_equip",
                "Defense_Plus5"
            ],
            [
                "value",
                900
            ],
            [
                "min_range",
                1
            ],
            [
                "max_range",
                2
            ],
            [
                "effective",
                34
            ],
            [
                "effective_tag",
                [
                    "Monster"
                ]
            ],
            [
                "map_hit_add_blend",
                [
                    255,
                    255,
                    0
                ]
            ]
        ]
    }
]