[
    {
        "nid": "Light_Brand",
        "name": "Light Brand",
        "desc": "Uses MAG to determine damage.",
        "icon_nid": "Sword",
        "icon_index": [
            0,
            14
        ],
        "components": [
            [
                "weapon",
                null
            ],
            [
                "target_enemy",
                null
            ],
            [
                "level_exp",
                null
            ],
            [
                "damage",
                9
            ],
            [
                "hit",
                70
            ],
            [
                "weapon_type",
                "Sword"
            ],
            [
                "weapon_rank",
                "C"
            ],
            [
                "uses",
                25
            ],
            [
                "uses_options",
                [
                    [
                        "LoseUsesOnMiss (T/F)",
                        "F",
                        "Lose uses even on miss"
                    ]
                ]
            ],
            [
                "weight",
                9
            ],
            [
                "value",
                1250
            ],
            [
                "min_range",
                1
            ],
            [
                "max_range",
                2
            ],
            [
                "magic",
                null
            ]
        ]
    }
]