[
    {
        "nid": "Nidhogg",
        "name": "Nidhogg",
        "desc": "Luck +5. Effective against monsters",
        "icon_nid": "Bow",
        "icon_index": [
            0,
            11
        ],
        "components": [
            [
                "weapon",
                null
            ],
            [
                "target_enemy",
                null
            ],
            [
                "level_exp",
                null
            ],
            [
                "damage",
                18
            ],
            [
                "hit",
                80
            ],
            [
                "weapon_type",
                "Bow"
            ],
            [
                "weapon_rank",
                "S"
            ],
            [
                "uses",
                30
            ],
            [
                "uses_options",
                [
                    [
                        "LoseUsesOnMiss (T/F)",
                        "F",
                        "Lose uses even on miss"
                    ]
                ]
            ],
            [
                "weight",
                7
            ],
            [
                "status_on_equip",
                "Luck_Plus5"
            ],
            [
                "crit",
                0
            ],
            [
                "min_range",
                2
            ],
            [
                "max_range",
                2
            ],
            [
                "effective",
                36
            ],
            [
                "effective_tag",
                [
                    "Monster",
                    "Flying"
                ]
            ]
        ]
    }
]