[
    {
        "nid": "Pure Water",
        "name": "Pure Water",
        "desc": "Temporarily raises resistance.",
        "icon_nid": "Consumable",
        "icon_index": [
            0,
            5
        ],
        "components": [
            [
                "usable",
                null
            ],
            [
                "value",
                900
            ],
            [
                "target_ally",
                null
            ],
            [
                "uses",
                3
            ],
            [
                "uses_options",
                [
                    [
                        "LoseUsesOnMiss (T/F)",
                        "F",
                        "Lose uses even on miss"
                    ]
                ]
            ],
            [
                "map_hit_add_blend",
                [
                    0,
                    187,
                    255
                ]
            ],
            [
                "status_on_hit",
                "ResistPlus"
            ]
        ]
    }
]