[
    {
        "nid": "Silver_Sword",
        "name": "Silver Sword",
        "desc": "",
        "icon_nid": "Sword",
        "icon_index": [
            0,
            3
        ],
        "components": [
            [
                "weapon",
                null
            ],
            [
                "value",
                1500
            ],
            [
                "target_enemy",
                null
            ],
            [
                "min_range",
                1
            ],
            [
                "max_range",
                1
            ],
            [
                "damage",
                13
            ],
            [
                "hit",
                80
            ],
            [
                "crit",
                0
            ],
            [
                "weight",
                8
            ],
            [
                "level_exp",
                null
            ],
            [
                "weapon_type",
                "Sword"
            ],
            [
                "weapon_rank",
                "A"
            ],
            [
                "uses",
                30
            ],
            [
                "uses_options",
                [
                    [
                        "LoseUsesOnMiss (T/F)",
                        "F",
                        "Lose uses even on miss"
                    ]
                ]
            ]
        ]
    }
]