[
    {
        "nid": "Silver_Lance",
        "name": "Silver Lance",
        "desc": "",
        "icon_nid": "Lance",
        "icon_index": [
            0,
            3
        ],
        "components": [
            [
                "weapon",
                null
            ],
            [
                "value",
                1200
            ],
            [
                "target_enemy",
                null
            ],
            [
                "min_range",
                1
            ],
            [
                "max_range",
                1
            ],
            [
                "damage",
                14
            ],
            [
                "hit",
                75
            ],
            [
                "crit",
                0
            ],
            [
                "weight",
                10
            ],
            [
                "level_exp",
                null
            ],
            [
                "weapon_type",
                "Lance"
            ],
            [
                "weapon_rank",
                "A"
            ],
            [
                "uses",
                20
            ],
            [
                "uses_options",
                [
                    [
                        "LoseUsesOnMiss (T/F)",
                        "F",
                        "Lose uses even on miss"
                    ]
                ]
            ]
        ]
    }
]