[
    {
        "nid": "Steel_Sword",
        "name": "Steel Sword",
        "desc": "",
        "icon_nid": "Sword",
        "icon_index": [
            0,
            2
        ],
        "components": [
            [
                "weapon",
                null
            ],
            [
                "value",
                480
            ],
            [
                "target_enemy",
                null
            ],
            [
                "min_range",
                1
            ],
            [
                "max_range",
                1
            ],
            [
                "damage",
                8
            ],
            [
                "hit",
                75
            ],
            [
                "crit",
                0
            ],
            [
                "weight",
                10
            ],
            [
                "uses",
                30
            ],
            [
                "uses_options",
                [
                    [
                        "LoseUsesOnMiss (T/F)",
                        "F",
                        "Lose uses even on miss"
                    ]
                ]
            ],
            [
                "level_exp",
                null
            ],
            [
                "weapon_type",
                "Sword"
            ],
            [
                "weapon_rank",
                "D"
            ]
        ]
    }
]